<?xml version="1.0" encoding="UTF-8" standalone="no"?>
<!-- Created with Inkscape (http://www.inkscape.org/) -->

<svg
   width="30.691628mm"
   height="30.691628mm"
   viewBox="0 0 30.691627 30.691627"
   version="1.1"
   id="svg5"
   sodipodi:docname="gitlab_qr_code.svg"
   inkscape:version="1.2.2 (1:1.2.2+202212051552+b0a8486541)"
   xmlns:inkscape="http://www.inkscape.org/namespaces/inkscape"
   xmlns:sodipodi="http://sodipodi.sourceforge.net/DTD/sodipodi-0.dtd"
   xmlns="http://www.w3.org/2000/svg"
   xmlns:svg="http://www.w3.org/2000/svg">
  <sodipodi:namedview
     id="namedview7"
     pagecolor="#ffffff"
     bordercolor="#666666"
     borderopacity="1.0"
     inkscape:showpageshadow="2"
     inkscape:pageopacity="0.0"
     inkscape:pagecheckerboard="0"
     inkscape:deskcolor="#d1d1d1"
     inkscape:document-units="mm"
     showgrid="false"
     inkscape:zoom="3.5491582"
     inkscape:cx="28.739209"
     inkscape:cy="45.22199"
     inkscape:window-width="1850"
     inkscape:window-height="1136"
     inkscape:window-x="70"
     inkscape:window-y="27"
     inkscape:window-maximized="1"
     inkscape:current-layer="layer1" />
  <defs
     id="defs2" />
  <g
     inkscape:label="Layer 1"
     inkscape:groupmode="layer"
     id="layer1"
     transform="translate(-74.606828,-9.749898)">
    <g
       inkscape:label="QR Code: https://gitlab.com/bahnvorhersage/"
       transform="matrix(0.264583,0,0,0.264583,70.3735,5.51657)"
       id="g144">
      <g
         style="fill:#000000;stroke:none"
         id="g142">
        <path
           d="m 127.6,132 h -3.2 c -0.22091,0 -0.4,-0.17909 -0.4,-0.4 V 124 h 4 v 7.6 c 0,0.22091 -0.17909,0.4 -0.4,0.4 z m -20,0 H 88.4 C 88.179086,132 88,131.82091 88,131.6 V 124 h 3.6 c 0.220914,0 0.4,0.17909 0.4,0.4 v 3.2 c 0,0.22091 0.179086,0.4 0.4,0.4 h 3.2 c 0.220914,0 0.4,-0.17909 0.4,-0.4 V 120 h 4 v 3.6 c 0,0.22091 0.17909,0.4 0.4,0.4 h 3.2 c 0.22091,0 0.4,0.17909 0.4,0.4 v 3.2 c 0,0.22091 0.17909,0.4 0.4,0.4 h 3.6 v 3.6 c 0,0.22091 -0.17909,0.4 -0.4,0.4 z m -24,0 h -3.2 c -0.220914,0 -0.4,-0.17909 -0.4,-0.4 v -3.2 c 0,-0.22091 0.179086,-0.4 0.4,-0.4 h 3.2 c 0.220914,0 0.4,0.17909 0.4,0.4 v 3.2 c 0,0.22091 -0.179086,0.4 -0.4,0.4 z m -20,0 h -7.2 c -0.220914,0 -0.4,-0.17909 -0.4,-0.4 v -11.2 c 0,-0.22091 -0.179086,-0.4 -0.4,-0.4 h -3.2 c -0.220914,0 -0.4,0.17909 -0.4,0.4 v 11.2 c 0,0.22091 -0.179086,0.4 -0.4,0.4 h -3.2 c -0.220914,0 -0.4,-0.17909 -0.4,-0.4 v -15.2 c 0,-0.22091 0.179086,-0.4 0.4,-0.4 h 3.2 c 0.220914,0 0.4,-0.17909 0.4,-0.4 v -3.2 c 0,-0.22091 0.179086,-0.4 0.4,-0.4 h 7.2 c 0.220914,0 0.4,-0.17909 0.4,-0.4 v -3.2 c 0,-0.22091 0.179086,-0.4 0.4,-0.4 h 11.2 c 0.220914,0 0.4,-0.17909 0.4,-0.4 v -3.2 c 0,-0.22091 0.179086,-0.4 0.4,-0.4 h 3.2 c 0.220914,0 0.4,0.17909 0.4,0.4 V 112 H 64.4 c -0.220914,0 -0.4,0.17909 -0.4,0.4 v 7.6 h -3.6 c -0.220914,0 -0.4,0.17909 -0.4,0.4 v 7.2 c 0,0.22091 0.179086,0.4 0.4,0.4 H 64 v 3.6 c 0,0.22091 -0.179086,0.4 -0.4,0.4 z m -20,0 H 16.4 c -0.220914,0 -0.4,-0.17909 -0.4,-0.4 v -27.2 c 0,-0.22091 0.179086,-0.4 0.4,-0.4 h 27.2 c 0.220914,0 0.4,0.17909 0.4,0.4 v 27.2 c 0,0.22091 -0.179086,0.4 -0.4,0.4 z m 76,-4 h -3.2 c -0.22091,0 -0.4,-0.17909 -0.4,-0.4 v -3.2 c 0,-0.22091 0.17909,-0.4 0.4,-0.4 h 3.6 v 3.6 c 0,0.22091 -0.17909,0.4 -0.4,0.4 z m -8,0 H 108 v -11.6 c 0,-0.22091 -0.17909,-0.4 -0.4,-0.4 h -3.2 c -0.22091,0 -0.4,0.17909 -0.4,0.4 v 3.2 c 0,0.22091 -0.17909,0.4 -0.4,0.4 H 100 v -3.6 c 0,-0.22091 -0.179086,-0.4 -0.4,-0.4 H 96 v -7.6 c 0,-0.22091 -0.179086,-0.4 -0.4,-0.4 h -3.2 c -0.220914,0 -0.4,0.17909 -0.4,0.4 v 3.2 c 0,0.22091 -0.179086,0.4 -0.4,0.4 H 88 v -3.6 c 0,-0.22091 -0.179086,-0.4 -0.4,-0.4 h -3.2 c -0.220914,0 -0.4,0.17909 -0.4,0.4 V 112 H 80 V 96.4 C 80,96.179086 79.820914,96 79.6,96 H 76.4 C 76.179086,96 76,96.179086 76,96.4 v 3.2 c 0,0.220914 -0.179086,0.4 -0.4,0.4 H 68.4 C 68.179086,100 68,99.820914 68,99.6 V 88.4 C 68,88.179086 68.179086,88 68.4,88 h 3.2 C 71.820914,88 72,87.820914 72,87.6 V 76 h 12 v 3.6 C 84,79.820914 83.820914,80 83.6,80 H 76.4 C 76.179086,80 76,80.179086 76,80.4 v 3.2 c 0,0.220914 0.179086,0.4 0.4,0.4 h 3.2 c 0.220914,0 0.4,0.179086 0.4,0.4 v 3.2 c 0,0.220914 0.179086,0.4 0.4,0.4 H 84 v 3.6 c 0,0.220914 0.179086,0.4 0.4,0.4 H 88 v 3.6 c 0,0.220914 0.179086,0.4 0.4,0.4 h 3.2 c 0.220914,0 0.4,0.179086 0.4,0.4 v 7.2 c 0,0.22091 0.179086,0.4 0.4,0.4 h 3.2 c 0.220914,0 0.4,-0.17909 0.4,-0.4 V 96.4 C 96,96.179086 96.179086,96 96.4,96 h 7.2 c 0.22091,0 0.4,-0.179086 0.4,-0.4 v -7.2 c 0,-0.220914 0.17909,-0.4 0.4,-0.4 h 3.2 c 0.22091,0 0.4,-0.179086 0.4,-0.4 v -3.2 c 0,-0.220914 0.17909,-0.4 0.4,-0.4 h 3.6 v 3.6 c 0,0.220914 0.17909,0.4 0.4,0.4 h 3.6 v 7.6 c 0,0.220914 0.17909,0.4 0.4,0.4 h 3.2 c 0.22091,0 0.4,-0.179086 0.4,-0.4 V 88.4 C 120,88.179086 119.82091,88 119.6,88 H 116 V 84.4 C 116,84.179086 115.82091,84 115.6,84 H 112 v -3.6 c 0,-0.220914 -0.17909,-0.4 -0.4,-0.4 h -11.2 c -0.22091,0 -0.4,0.179086 -0.4,0.4 v 3.2 c 0,0.220914 -0.179086,0.4 -0.4,0.4 H 88 v -8 h 3.6 C 91.820914,76 92,75.820914 92,75.6 V 72.4 C 92,72.179086 91.820914,72 91.6,72 H 88.4 C 88.179086,72 88,72.179086 88,72.4 V 76 H 84 V 64.4 C 84,64.179086 84.179086,64 84.4,64 H 88 v 3.6 c 0,0.220914 0.179086,0.4 0.4,0.4 h 7.2 c 0.220914,0 0.4,0.179086 0.4,0.4 v 3.2 c 0,0.220914 0.179086,0.4 0.4,0.4 h 3.2 c 0.220914,0 0.4,0.179086 0.4,0.4 v 3.2 c 0,0.220914 0.17909,0.4 0.4,0.4 h 3.2 c 0.22091,0 0.4,-0.179086 0.4,-0.4 v -7.2 c 0,-0.220914 0.17909,-0.4 0.4,-0.4 h 3.2 c 0.22091,0 0.4,0.179086 0.4,0.4 v 7.2 c 0,0.220914 0.17909,0.4 0.4,0.4 h 7.2 c 0.22091,0 0.4,0.179086 0.4,0.4 v 3.2 c 0,0.220914 0.17909,0.4 0.4,0.4 h 3.2 c 0.22091,0 0.4,0.179086 0.4,0.4 v 3.2 c 0,0.220914 0.17909,0.4 0.4,0.4 h 3.2 c 0.22091,0 0.4,-0.179086 0.4,-0.4 v -7.2 c 0,-0.220914 -0.17909,-0.4 -0.4,-0.4 h -3.2 c -0.22091,0 -0.4,-0.179086 -0.4,-0.4 v -7.2 c 0,-0.220914 -0.17909,-0.4 -0.4,-0.4 h -3.2 C 116.17909,68 116,67.820914 116,67.6 V 64 h 7.6 c 0.22091,0 0.4,0.179086 0.4,0.4 v 3.2 c 0,0.220914 0.17909,0.4 0.4,0.4 h 7.2 c 0.22091,0 0.4,0.179086 0.4,0.4 v 7.2 c 0,0.220914 -0.17909,0.4 -0.4,0.4 h -3.2 c -0.22091,0 -0.4,0.179086 -0.4,0.4 v 11.2 c 0,0.220914 -0.17909,0.4 -0.4,0.4 h -3.2 c -0.22091,0 -0.4,0.179086 -0.4,0.4 v 11.2 c 0,0.220914 0.17909,0.4 0.4,0.4 h 7.2 c 0.22091,0 0.4,0.17909 0.4,0.4 v 3.2 c 0,0.22091 -0.17909,0.4 -0.4,0.4 h -3.2 c -0.22091,0 -0.4,0.17909 -0.4,0.4 v 3.2 c 0,0.22091 -0.17909,0.4 -0.4,0.4 h -3.2 c -0.22091,0 -0.4,-0.17909 -0.4,-0.4 v -3.2 c 0,-0.22091 -0.17909,-0.4 -0.4,-0.4 h -3.2 c -0.22091,0 -0.4,0.17909 -0.4,0.4 v 7.6 h -3.6 c -0.22091,0 -0.4,0.17909 -0.4,0.4 v 3.2 c 0,0.22091 0.17909,0.4 0.4,0.4 h 3.6 v 4 h -7.6 c -0.22091,0 -0.4,0.17909 -0.4,0.4 v 7.2 c 0,0.22091 -0.17909,0.4 -0.4,0.4 z m -40,0 H 64 v -8 h 4 v 3.6 c 0,0.22091 0.179086,0.4 0.4,0.4 H 72 v 3.6 c 0,0.22091 -0.179086,0.4 -0.4,0.4 z M 40,127.6 V 108.4 C 40,108.17909 39.820914,108 39.6,108 H 20.4 c -0.220914,0 -0.4,0.17909 -0.4,0.4 v 19.2 c 0,0.22091 0.179086,0.4 0.4,0.4 h 19.2 c 0.220914,0 0.4,-0.17909 0.4,-0.4 z M 131.6,124 H 128 v -8 h 3.6 c 0.22091,0 0.4,0.17909 0.4,0.4 v 7.2 c 0,0.22091 -0.17909,0.4 -0.4,0.4 z m -8,0 H 120 v -4 h 3.6 c 0.22091,0 0.4,0.17909 0.4,0.4 v 3.6 z m -36,0 h -3.2 c -0.220914,0 -0.4,-0.17909 -0.4,-0.4 v -3.2 C 84,120.17909 83.820914,120 83.6,120 H 76 v -8 h 4 v 3.6 c 0,0.22091 0.179086,0.4 0.4,0.4 h 3.2 c 0.220914,0 0.4,-0.17909 0.4,-0.4 V 112 h 4 v 3.6 c 0,0.22091 0.179086,0.4 0.4,0.4 H 96 v 4 h -7.6 c -0.220914,0 -0.4,0.17909 -0.4,0.4 v 3.6 z m -12,0 H 72 v -4 h 4 v 3.6 c 0,0.22091 -0.179086,0.4 -0.4,0.4 z m -40,0 H 24.4 c -0.220914,0 -0.4,-0.17909 -0.4,-0.4 v -11.2 c 0,-0.22091 0.179086,-0.4 0.4,-0.4 h 11.2 c 0.220914,0 0.4,0.17909 0.4,0.4 v 11.2 c 0,0.22091 -0.179086,0.4 -0.4,0.4 z m 36,-4 H 68 v -3.6 c 0,-0.22091 0.179086,-0.4 0.4,-0.4 h 3.2 c 0.220914,0 0.4,0.17909 0.4,0.4 v 3.6 z m 56,-4 H 120 v -4 h 7.6 c 0.22091,0 0.4,0.17909 0.4,0.4 V 116 Z M 112,111.6 v -11.2 c 0,-0.22091 -0.17909,-0.4 -0.4,-0.4 h -11.2 c -0.22091,0 -0.4,0.17909 -0.4,0.4 v 11.2 c 0,0.22091 0.17909,0.4 0.4,0.4 h 11.2 c 0.22091,0 0.4,-0.17909 0.4,-0.4 z m -4.4,-3.6 h -3.2 c -0.22091,0 -0.4,-0.17909 -0.4,-0.4 v -3.2 c 0,-0.22091 0.17909,-0.4 0.4,-0.4 h 3.2 c 0.22091,0 0.4,0.17909 0.4,0.4 v 3.2 c 0,0.22091 -0.17909,0.4 -0.4,0.4 z m -52,0 h -3.2 c -0.220914,0 -0.4,-0.17909 -0.4,-0.4 v -3.2 c 0,-0.22091 -0.179086,-0.4 -0.4,-0.4 h -3.2 c -0.220914,0 -0.4,-0.17909 -0.4,-0.4 v -3.2 c 0,-0.22091 0.179086,-0.4 0.4,-0.4 h 3.2 c 0.220914,0 0.4,-0.179086 0.4,-0.4 V 96.4 C 52,96.179086 52.179086,96 52.4,96 H 60 v 3.6 c 0,0.220914 -0.179086,0.4 -0.4,0.4 h -3.2 c -0.220914,0 -0.4,0.17909 -0.4,0.4 v 7.2 c 0,0.22091 -0.179086,0.4 -0.4,0.4 z M 88,103.6 v -3.2 c 0,-0.22091 -0.179086,-0.4 -0.4,-0.4 h -3.2 c -0.220914,0 -0.4,0.17909 -0.4,0.4 v 3.2 c 0,0.22091 0.179086,0.4 0.4,0.4 h 3.2 c 0.220914,0 0.4,-0.17909 0.4,-0.4 z M 43.6,100 H 40.4 C 40.179086,100 40,99.820914 40,99.6 V 96 h 3.6 c 0.220914,0 0.4,0.179086 0.4,0.4 v 3.2 c 0,0.220914 -0.179086,0.4 -0.4,0.4 z m -8,0 H 28.4 C 28.179086,100 28,99.820914 28,99.6 V 96 h 8 v 3.6 c 0,0.220914 -0.179086,0.4 -0.4,0.4 z m -12,0 H 20.4 C 20.179086,100 20,99.820914 20,99.6 V 96.4 C 20,96.179086 20.179086,96 20.4,96 H 24 v 3.6 c 0,0.220914 -0.179086,0.4 -0.4,0.4 z m 40,-4 H 60 v -4 h 3.6 c 0.220914,0 0.4,0.179086 0.4,0.4 v 3.2 c 0,0.220914 -0.179086,0.4 -0.4,0.4 z m -24,0 H 36 V 88.4 C 36,88.179086 36.179086,88 36.4,88 h 7.2 C 43.820914,88 44,87.820914 44,87.6 V 84 h 3.6 c 0.220914,0 0.4,0.179086 0.4,0.4 v 3.2 c 0,0.220914 0.179086,0.4 0.4,0.4 H 52 v 3.6 C 52,91.820914 51.820914,92 51.6,92 H 40.4 C 40.179086,92 40,92.179086 40,92.4 V 96 Z m -12,0 H 24 V 92.4 C 24,92.179086 24.179086,92 24.4,92 H 28 v 4 z m 72,-4 H 96.4 C 96.179086,92 96,91.820914 96,91.6 V 88.4 C 96,88.179086 96.179086,88 96.4,88 h 3.2 c 0.220914,0 0.4,0.179086 0.4,0.4 v 3.2 c 0,0.220914 -0.179086,0.4 -0.4,0.4 z m -8,0 H 88 v -4 h 3.6 c 0.220914,0 0.4,0.179086 0.4,0.4 v 3.2 c 0,0.220914 -0.179086,0.4 -0.4,0.4 z m -32,0 H 56.4 C 56.179086,92 56,91.820914 56,91.6 V 88.4 C 56,88.179086 55.820914,88 55.6,88 H 52 v -8 h 3.6 C 55.820914,80 56,79.820914 56,79.6 V 72.4 C 56,72.179086 56.179086,72 56.4,72 h 3.2 C 59.820914,72 60,71.820914 60,71.6 V 68 h 3.6 C 63.820914,68 64,67.820914 64,67.6 V 64.4 C 64,64.179086 64.179086,64 64.4,64 h 3.2 c 0.220914,0 0.4,0.179086 0.4,0.4 V 72 H 64.4 C 64.179086,72 64,72.179086 64,72.4 V 80 H 60.4 C 60.179086,80 60,80.179086 60,80.4 V 92 Z m -28,0 H 28 V 88.4 C 28,88.179086 27.820914,88 27.6,88 H 20 V 72.4 C 20,72.179086 20.179086,72 20.4,72 h 3.2 c 0.220914,0 0.4,0.179086 0.4,0.4 v 3.2 c 0,0.220914 0.179086,0.4 0.4,0.4 h 3.2 C 27.820914,76 28,75.820914 28,75.6 V 72.4 C 28,72.179086 28.179086,72 28.4,72 h 3.2 c 0.220914,0 0.4,0.179086 0.4,0.4 v 3.2 c 0,0.220914 0.179086,0.4 0.4,0.4 H 40 v 3.6 c 0,0.220914 0.179086,0.4 0.4,0.4 H 44 v 4 H 32.4 C 32.179086,84 32,84.179086 32,84.4 v 7.2 c 0,0.220914 -0.179086,0.4 -0.4,0.4 z m -12,0 H 16.4 C 16.179086,92 16,91.820914 16,91.6 V 88.4 C 16,88.179086 16.179086,88 16.4,88 H 20 v 3.6 c 0,0.220914 -0.179086,0.4 -0.4,0.4 z m 68,-4 H 84 V 84.4 C 84,84.179086 84.179086,84 84.4,84 H 88 v 4 z m -20,-4 H 64.4 C 64.179086,84 64,83.820914 64,83.6 V 80 h 3.6 c 0.220914,0 0.4,0.179086 0.4,0.4 v 3.2 C 68,83.820914 67.820914,84 67.6,84 Z M 28,83.6 V 80.4 C 28,80.179086 27.820914,80 27.6,80 H 24.4 C 24.179086,80 24,80.179086 24,80.4 v 3.2 c 0,0.220914 0.179086,0.4 0.4,0.4 h 3.2 C 27.820914,84 28,83.820914 28,83.6 Z M 51.6,80 H 44 V 76.4 C 44,76.179086 43.820914,76 43.6,76 H 40 v -4 h 3.6 C 43.820914,72 44,71.820914 44,71.6 V 68 h 3.6 c 0.220914,0 0.4,0.179086 0.4,0.4 v 3.2 c 0,0.220914 0.179086,0.4 0.4,0.4 h 3.2 c 0.220914,0 0.4,0.179086 0.4,0.4 V 80 Z m 20,-4 H 68.4 C 68.179086,76 68,75.820914 68,75.6 V 72 h 4 v 4 z m 8,-4 H 72 V 64.4 C 72,64.179086 72.179086,64 72.4,64 H 76 v 3.6 c 0,0.220914 0.179086,0.4 0.4,0.4 h 3.2 c 0.220914,0 0.4,0.179086 0.4,0.4 v 3.2 c 0,0.220914 -0.179086,0.4 -0.4,0.4 z m -40,0 H 36.4 C 36.179086,72 36,71.820914 36,71.6 V 68 h 4 v 4 z m 20,-4 H 52.4 C 52.179086,68 52,67.820914 52,67.6 V 56 h 3.6 C 55.820914,56 56,55.820914 56,55.6 V 36.4 C 56,36.179086 56.179086,36 56.4,36 h 3.2 C 59.820914,36 60,35.820914 60,35.6 V 32 h 3.6 C 63.820914,32 64,31.820914 64,31.6 V 28.4 C 64,28.179086 64.179086,28 64.4,28 h 3.2 c 0.220914,0 0.4,0.179086 0.4,0.4 V 36 H 64.4 C 64.179086,36 64,36.179086 64,36.4 V 40 H 60.4 C 60.179086,40 60,40.179086 60,40.4 v 7.2 c 0,0.220914 0.179086,0.4 0.4,0.4 h 3.2 C 63.820914,48 64,47.820914 64,47.6 V 40 h 4 v 7.6 c 0,0.220914 0.179086,0.4 0.4,0.4 h 3.2 c 0.220914,0 0.4,0.179086 0.4,0.4 v 3.2 c 0,0.220914 0.179086,0.4 0.4,0.4 h 3.2 C 75.820914,52 76,51.820914 76,51.6 V 44 h 3.6 C 79.820914,44 80,43.820914 80,43.6 V 40.4 C 80,40.179086 79.820914,40 79.6,40 H 76 v -4 h 3.6 C 79.820914,36 80,35.820914 80,35.6 V 32 h 3.6 C 83.820914,32 84,31.820914 84,31.6 V 28 h 3.6 c 0.220914,0 0.4,0.179086 0.4,0.4 v 3.2 c 0,0.220914 0.179086,0.4 0.4,0.4 h 3.2 C 91.820914,32 92,31.820914 92,31.6 V 24 h 4 v 11.6 c 0,0.220914 0.179086,0.4 0.4,0.4 h 3.2 c 0.220914,0 0.4,0.179086 0.4,0.4 V 48 H 96 V 40.4 C 96,40.179086 95.820914,40 95.6,40 H 92.4 C 92.179086,40 92,40.179086 92,40.4 v 3.2 C 92,43.820914 91.820914,44 91.6,44 H 88 V 40.4 C 88,40.179086 87.820914,40 87.6,40 H 84.4 C 84.179086,40 84,40.179086 84,40.4 v 3.2 c 0,0.220914 0.179086,0.4 0.4,0.4 H 88 v 3.6 c 0,0.220914 0.179086,0.4 0.4,0.4 H 96 v 3.6 c 0,0.220914 0.179086,0.4 0.4,0.4 h 3.2 c 0.220914,0 0.4,-0.179086 0.4,-0.4 V 48 h 3.6 c 0.22091,0 0.4,0.179086 0.4,0.4 v 3.2 c 0,0.220914 0.17909,0.4 0.4,0.4 h 7.2 c 0.22091,0 0.4,-0.179086 0.4,-0.4 v -3.2 c 0,-0.220914 0.17909,-0.4 0.4,-0.4 h 11.2 c 0.22091,0 0.4,0.179086 0.4,0.4 v 3.2 c 0,0.220914 -0.17909,0.4 -0.4,0.4 h -7.2 c -0.22091,0 -0.4,0.179086 -0.4,0.4 v 3.2 c 0,0.220914 -0.17909,0.4 -0.4,0.4 h -3.2 c -0.22091,0 -0.4,0.179086 -0.4,0.4 v 3.2 c 0,0.220914 0.17909,0.4 0.4,0.4 h 3.2 c 0.22091,0 0.4,0.179086 0.4,0.4 V 64 H 100.4 C 100.17909,64 100,63.820914 100,63.6 V 60 h 7.6 c 0.22091,0 0.4,-0.179086 0.4,-0.4 v -3.2 c 0,-0.220914 -0.17909,-0.4 -0.4,-0.4 h -7.2 c -0.22091,0 -0.4,0.179086 -0.4,0.4 V 60 H 96.4 C 96.179086,60 96,59.820914 96,59.6 V 56.4 C 96,56.179086 95.820914,56 95.6,56 H 92.4 C 92.179086,56 92,56.179086 92,56.4 v 7.2 C 92,63.820914 91.820914,64 91.6,64 H 88 V 56.4 C 88,56.179086 87.820914,56 87.6,56 H 84 V 52.4 C 84,52.179086 83.820914,52 83.6,52 H 80.4 C 80.179086,52 80,52.179086 80,52.4 V 56 H 72.4 C 72.179086,56 72,56.179086 72,56.4 v 3.2 C 72,59.820914 71.820914,60 71.6,60 H 60.4 C 60.179086,60 60,60.179086 60,60.4 V 68 Z m -16,0 H 40 v -4 h 3.6 c 0.220914,0 0.4,0.179086 0.4,0.4 V 68 Z m -8,0 H 32.4 C 32.179086,68 32,67.820914 32,67.6 V 64.4 C 32,64.179086 32.179086,64 32.4,64 H 36 v 4 z m -8,0 H 20.4 C 20.179086,68 20,67.820914 20,67.6 V 60 h 3.6 C 23.820914,60 24,59.820914 24,59.6 V 56.4 C 24,56.179086 24.179086,56 24.4,56 h 3.2 C 27.820914,56 28,55.820914 28,55.6 V 52.4 C 28,52.179086 27.820914,52 27.6,52 H 16.4 C 16.179086,52 16,51.820914 16,51.6 V 48.4 C 16,48.179086 16.179086,48 16.4,48 h 15.2 c 0.220914,0 0.4,0.179086 0.4,0.4 V 59.6 C 32,59.820914 31.820914,60 31.6,60 H 28.4 C 28.179086,60 28,60.179086 28,60.4 v 7.2 c 0,0.220914 -0.179086,0.4 -0.4,0.4 z m 104,-4 h -3.2 C 128.17909,64 128,63.820914 128,63.6 V 60 h 3.6 c 0.22091,0 0.4,0.179086 0.4,0.4 v 3.2 c 0,0.220914 -0.17909,0.4 -0.4,0.4 z m -52,0 H 76 V 60.4 C 76,60.179086 76.179086,60 76.4,60 H 80 v 3.6 c 0,0.220914 -0.179086,0.4 -0.4,0.4 z m -40,0 H 36 V 60.4 C 36,60.179086 36.179086,60 36.4,60 H 40 v 4 z m 88,-4 h -7.2 c -0.22091,0 -0.4,-0.179086 -0.4,-0.4 v -3.2 c 0,-0.220914 0.17909,-0.4 0.4,-0.4 h 7.6 v 4 z m -44,0 H 80 v -4 h 4 v 3.6 c 0,0.220914 -0.179086,0.4 -0.4,0.4 z m -40,0 H 40 V 56.4 C 40,56.179086 40.179086,56 40.4,56 H 44 v 3.6 c 0,0.220914 -0.179086,0.4 -0.4,0.4 z m -24,0 H 16.4 C 16.179086,60 16,59.820914 16,59.6 V 56.4 C 16,56.179086 16.179086,56 16.4,56 h 3.2 c 0.220914,0 0.4,0.179086 0.4,0.4 V 60 Z m 112,-4 H 128 v -7.6 c 0,-0.220914 0.17909,-0.4 0.4,-0.4 h 3.2 c 0.22091,0 0.4,0.179086 0.4,0.4 v 7.2 c 0,0.220914 -0.17909,0.4 -0.4,0.4 z M 64,55.6 V 52.4 C 64,52.179086 63.820914,52 63.6,52 H 60.4 C 60.179086,52 60,52.179086 60,52.4 v 3.2 c 0,0.220914 0.179086,0.4 0.4,0.4 h 3.2 C 63.820914,56 64,55.820914 64,55.6 Z M 51.6,56 H 44 v -4 h 3.6 C 47.820914,52 48,51.820914 48,51.6 V 48.4 C 48,48.179086 48.179086,48 48.4,48 h 3.2 c 0.220914,0 0.4,0.179086 0.4,0.4 V 56 Z m -8,-4 H 40.4 C 40.179086,52 40,51.820914 40,51.6 V 48.4 C 40,48.179086 40.179086,48 40.4,48 h 3.2 c 0.220914,0 0.4,0.179086 0.4,0.4 V 52 Z m 88,-8 H 104.4 C 104.17909,44 104,43.820914 104,43.6 V 16.4 c 0,-0.220914 0.17909,-0.4 0.4,-0.4 h 27.2 c 0.22091,0 0.4,0.179086 0.4,0.4 v 27.2 c 0,0.220914 -0.17909,0.4 -0.4,0.4 z m -56,0 H 72.4 C 72.179086,44 72,43.820914 72,43.6 V 40 h 4 v 4 z m -24,0 H 48.4 C 48.179086,44 48,43.820914 48,43.6 V 40.4 C 48,40.179086 48.179086,40 48.4,40 h 3.2 c 0.220914,0 0.4,0.179086 0.4,0.4 v 3.2 c 0,0.220914 -0.179086,0.4 -0.4,0.4 z m -8,0 H 16.4 C 16.179086,44 16,43.820914 16,43.6 V 16.4 C 16,16.179086 16.179086,16 16.4,16 h 27.2 c 0.220914,0 0.4,0.179086 0.4,0.4 V 43.6 C 44,43.820914 43.820914,44 43.6,44 Z M 128,39.6 V 20.4 c 0,-0.220914 -0.17909,-0.4 -0.4,-0.4 h -19.2 c -0.22091,0 -0.4,0.179086 -0.4,0.4 v 19.2 c 0,0.220914 0.17909,0.4 0.4,0.4 h 19.2 c 0.22091,0 0.4,-0.179086 0.4,-0.4 z M 71.6,40 H 68 v -4 h 4 v 4 z M 40,39.6 V 20.4 C 40,20.179086 39.820914,20 39.6,20 H 20.4 C 20.179086,20 20,20.179086 20,20.4 v 19.2 c 0,0.220914 0.179086,0.4 0.4,0.4 H 39.6 C 39.820914,40 40,39.820914 40,39.6 Z M 123.6,36 H 112.4 C 112.17909,36 112,35.820914 112,35.6 V 24.4 c 0,-0.220914 0.17909,-0.4 0.4,-0.4 h 11.2 c 0.22091,0 0.4,0.179086 0.4,0.4 v 11.2 c 0,0.220914 -0.17909,0.4 -0.4,0.4 z m -48,0 H 72 V 28.4 C 72,28.179086 72.179086,28 72.4,28 H 80 v 4 H 76.4 C 76.179086,32 76,32.179086 76,32.4 V 36 Z m -24,0 H 48.4 C 48.179086,36 48,35.820914 48,35.6 V 24.4 C 48,24.179086 48.179086,24 48.4,24 h 3.2 C 51.820914,24 52,23.820914 52,23.6 V 20 h 3.6 C 55.820914,20 56,19.820914 56,19.6 V 16.4 C 56,16.179086 56.179086,16 56.4,16 h 3.2 c 0.220914,0 0.4,0.179086 0.4,0.4 v 3.2 c 0,0.220914 0.179086,0.4 0.4,0.4 h 3.2 C 63.820914,20 64,19.820914 64,19.6 V 16.4 C 64,16.179086 64.179086,16 64.4,16 h 15.2 c 0.220914,0 0.4,0.179086 0.4,0.4 V 20 H 72.4 C 72.179086,20 72,20.179086 72,20.4 v 3.2 C 72,23.820914 71.820914,24 71.6,24 H 60.4 C 60.179086,24 60,24.179086 60,24.4 V 32 H 52.4 C 52.179086,32 52,32.179086 52,32.4 v 3.2 c 0,0.220914 -0.179086,0.4 -0.4,0.4 z m -16,0 H 24.4 C 24.179086,36 24,35.820914 24,35.6 V 24.4 C 24,24.179086 24.179086,24 24.4,24 h 11.2 c 0.220914,0 0.4,0.179086 0.4,0.4 v 11.2 c 0,0.220914 -0.179086,0.4 -0.4,0.4 z m 48,-8 H 80 v -8 h 4 v 8 z m 16,-4 H 96 V 20.4 C 96,20.179086 95.820914,20 95.6,20 H 92.4 C 92.179086,20 92,20.179086 92,20.4 V 24 H 88.4 C 88.179086,24 88,23.820914 88,23.6 V 20.4 C 88,20.179086 87.820914,20 87.6,20 H 84 V 16.4 C 84,16.179086 84.179086,16 84.4,16 h 15.2 c 0.220914,0 0.4,0.179086 0.4,0.4 v 7.2 c 0,0.220914 -0.179086,0.4 -0.4,0.4 z m -48,-4 H 48.4 C 48.179086,20 48,19.820914 48,19.6 V 16.4 C 48,16.179086 48.179086,16 48.4,16 h 3.2 c 0.220914,0 0.4,0.179086 0.4,0.4 V 20 Z"
           id="path140" />
      </g>
    </g>
  </g>
</svg>
